08_flow_control/08_06_gearbox_2_to_1_fc/dump.vcd
$date
	Sat Apr 04 01:48:51 2026
$end
$version
	Icarus Verilog
$end
$timescale
	1s
$end
$scope module testbench $end
$var wire 1 ! down_handshake $end
$var wire 1 " up_handshake $end
$var wire 1 # up_ready $end
$var wire 2 $ out_token [1:0] $end
$var wire 1 % down_valid $end
$var parameter 33 & MAX_TOKEN $end
$var parameter 32 ' N $end
$var parameter 32 ( TIMEOUT $end
$var parameter 32 ) WIDTH $end
$var parameter 32 * pro_ready $end
$var parameter 32 + pro_token $end
$var parameter 32 , pro_valid $end
$var reg 1 - clk $end
$var reg 1 . down_ready $end
$var reg 4 / expected_token [3:0] $end
$var reg 2 0 first_part [1:0] $end
$var reg 4 1 in_token [3:0] $end
$var reg 1 2 order $end
$var reg 1 3 rst $end
$var reg 4 4 sample [3:0] $end
$var reg 4 5 tmp_token [3:0] $end
$var reg 1 6 up_valid $end
$var reg 1 7 valid_tmp $end
$var integer 32 8 count_token [31:0] $end
$var integer 32 9 stage [31:0] $end
$var reg 1 : was_reset $end
$scope module dut $end
$var wire 1 - clk $end
$var wire 2 ; down_data [1:0] $end
$var wire 1 . down_ready $end
$var wire 1 % down_valid $end
$var wire 1 3 rst $end
$var wire 4 < up_data [3:0] $end
$var wire 1 # up_ready $end
$var wire 1 6 up_valid $end
$var parameter 32 = width $end
$var reg 2 > next_state [1:0] $end
$var reg 2 ? part_data [1:0] $end
$var reg 2 @ second_data [1:0] $end
$var reg 2 A state [1:0] $end
$upscope $end
$upscope $end
$enddefinitions $end
$comment Show the parameter values. $end
$dumpall
b10 =
b110010 ,
b110010 +
b110010 *
b10 )
b1100001101010000 (
b1100100 '
b11 &
$end
#0
$dumpvars
bx A
bx @
bx ?
bx >
bx <
bx ;
0:
b0 9
b0 8
x7
x6
bx 5
b0 4
x3
x2
bx 1
bx 0
bx /
x.
0-
x%
bx $
x#
x"
x!
$end
#500
1-
#1000
0-
#1500
b0 >
b0 $
b0 ;
b0 ?
b0 A
13
1-
#2000
0-
#2500
1:
12
1-
#3000
0-
#3500
1!
1%
b10 @
b1 >
1"
1#
b10 1
b10 <
16
1.
b1 9
b10 4
03
1-
#4000
0-
#4500
0"
b10 $
b10 ;
b10 ?
b10 >
0#
b1 A
02
b0 0
1-
#5000
0-
#5500
b0 $
b0 ;
b0 ?
b1 @
1"
b1 >
1#
b10 A
b1 1
b1 <
12
b1 4
b10 /
b1 8
1-
#6000
0-
#6500
0"
b1 $
b1 ;
b1 ?
b10 >
0#
b1 A
02
1-
#7000
0-
#7500
b0 $
b0 ;
b0 ?
b0 @
1"
b1 >
1#
b10 A
b0 1
b0 <
12
b0 4
b1 /
b10 8
1-
#8000
0-
#8500
0"
b10 >
0#
b1 A
02
1-
#9000
0-
#9500
1"
b1 >
1#
b10 A
12
b0 /
b11 8
1-
#10000
0-
#10500
0"
b10 >
0#
b1 A
02
1-
#11000
0-
#11500
b10 @
1"
b1 >
1#
b10 A
b10 1
b10 <
12
b10 4
b100 8
1-
#12000
0-
#12500
0"
b10 $
b10 ;
b10 ?
b10 >
0#
b1 A
02
1-
#13000
0-
#13500
b0 $
b0 ;
b0 ?
b11 @
1"
b1 >
1#
b10 A
b11 1
b11 <
12
b11 4
b10 /
b101 8
1-
#14000
0-
#14500
0"
b11 $
b11 ;
b11 ?
b10 >
0#
b1 A
02
1-
#15000
0-
#15500
b0 $
b0 ;
b0 ?
b0 @
1"
b1 >
1#
b10 A
b0 1
b0 <
12
b0 4
b11 /
b110 8
1-
#16000
0-
#16500
0"
b10 >
0#
b1 A
02
1-
#17000
0-
#17500
1"
b1 >
1#
b10 A
12
b0 /
b111 8
1-
#18000
0-
#18500
0"
b10 >
0#
b1 A
02
1-
#19000
0-
#19500
b10 @
1"
b1 >
1#
b10 A
b10 1
b10 <
12
b10 4
b1000 8
1-
#20000
0-
#20500
0"
b10 $
b10 ;
b10 ?
b10 >
0#
b1 A
02
1-
#21000
0-
#21500
1"
b0 $
b0 ;
b0 ?
b1 >
1#
b10 A
12
b10 /
b1001 8
1-
#22000
0-
#22500
0"
b10 $
b10 ;
b10 ?
b10 >
0#
b1 A
02
1-
#23000
0-
#23500
0!
0%
1#
b10 A
07
b10 9
12
b10 >
06
b1010 8
1-
#24000
0-
#24500
bx 1
bx <
1-
#25000
0-
#25500
1-
#26000
0-
#26500
1-
#27000
0-
#27500
17
1-
#28000
0-
#28500
b0 $
b0 ;
b0 ?
b1 >
1!
1%
1"
b1 4
b10 1
b10 <
16
1-
#29000
0-
#29500
0"
b10 >
0#
b10 $
b10 ;
b10 ?
b1 A
b1 1
b1 <
02
1-
#30000
0-
#30500
1"
b0 $
b0 ;
b0 ?
b1 @
b1 >
1#
b10 A
12
b1011 8
1-
#31000
0-
#31500
0"
b1 $
b1 ;
b1 ?
b10 >
0#
b1 A
b11 4
02
1-
#32000
0-
#32500
1"
b0 $
b0 ;
b0 ?
b1 >
1#
b10 A
12
b1 /
b1100 8
1-
#33000
0-
#33500
0"
b10 >
0#
b1 $
b1 ;
b1 ?
b1 A
b0 4
b11 1
b11 <
02
1-
#34000
0-
#34500
1"
b0 $
b0 ;
b0 ?
b11 @
b1 >
1#
b10 A
12
b1101 8
1-
#35000
0-
#35500
0"
b10 >
0#
b11 $
b11 ;
b11 ?
b1 A
b0 1
b0 <
02
1-
#36000
0-
#36500
1"
b0 $
b0 ;
b0 ?
b0 @
b1 >
1#
b10 A
12
b11 /
b1110 8
1-
#37000
0-
#37500
0#
0!
0"
b1 A
b11 4
0.
06
b11 9
02
1-
#38000
0-
#38500
b11 1
b11 <
16
1-
#39000
0-
#39500
b1 4
1-
#40000
0-
#40500
b10 >
1!
1.
1-
#41000
0-
#41500
1"
b11 @
b1 >
1#
b10 A
12
b0 /
b1111 8
1-
#42000
0-
#42500
0"
0#
b11 $
b11 ;
b11 ?
b10 >
b1 A
02
b1 1
b1 <
1.
1-
#43000
0-
#43500
1"
b0 $
b0 ;
b0 ?
b1 @
b1 >
1#
b10 A
b0 4
12
b11 /
b10000 8
1-
#44000
0-
#44500
0"
b10 >
0#
b1 $
b1 ;
b1 ?
b1 A
02
b0 1
b0 <
1-
#45000
0-
#45500
1"
b0 $
b0 ;
b0 ?
b0 @
b1 >
1#
b10 A
b10 4
12
b1 /
b10001 8
1-
#46000
0-
#46500
0"
0#
0!
b1 A
02
0.
b10 1
b10 <
1-
#47000
0-
#47500
b11 4
1-
#48000
0-
#48500
b10 >
1!
1.
1-
#49000
0-
#49500
1"
b10 @
b1 >
1#
b10 A
12
b0 /
b10010 8
1-
#50000
0-
#50500
0"
b10 >
0#
b10 $
b10 ;
b10 ?
b1 A
02
b11 1
b11 <
1-
#51000
0-
#51500
1"
b0 $
b0 ;
b0 ?
b11 @
b1 >
1#
b10 A
b0 4
12
b10 /
b10011 8
1-
#52000
0-
#52500
0"
0#
b11 $
b11 ;
b11 ?
b10 >
b1 A
02
b0 1
b0 <
1.
1-
#53000
0-
#53500
1"
b0 $
b0 ;
b0 ?
b0 @
b1 >
1#
b10 A
12
b11 /
b10100 8
1-
#54000
0-
#54500
0"
0#
0!
b1 A
02
0.
1-
#55000
0-
#55500
b1 4
1-
#56000
0-
#56500
1-
#57000
0-
#57500
1-
#58000
0-
#58500
b10 >
1!
1.
1-
#59000
0-
#59500
1"
b1 >
1#
b10 A
12
b0 /
b10101 8
1-
#60000
0-
#60500
0"
0#
0!
b1 A
02
b1 1
b1 <
0.
1-
#61000
0-
#61500
b10 4
1-
#62000
0-
#62500
b10 >
1!
1.
1-
#63000
0-
#63500
0!
b10 A
0.
12
b10110 8
1-
#64000
0-
#64500
b1 @
1"
1#
b1 >
1!
1.
1-
#65000
0-
#65500
0"
0#
0!
b1 A
b10 1
b10 <
0.
02
1-
#66000
0-
#66500
b11 4
1-
#67000
0-
#67500
1-
#68000
0-
#68500
b1 $
b1 ;
b1 ?
b10 >
1!
1.
1-
#69000
0-
#69500
0!
b10 A
0.
12
b1 /
b10111 8
1-
#70000
0-
#70500
b0 $
b0 ;
b0 ?
b10 @
1"
1#
b1 >
1!
1.
1-
#71000
0-
#71500
0"
0#
0!
b1 A
0.
b11 1
b11 <
02
1-
#72000
0-
#72500
b10 4
1-
#73000
0-
#73500
b10 $
b10 ;
b10 ?
b10 >
1!
1.
1-
#74000
0-
#74500
0!
b10 A
12
0.
b10 /
b11000 8
1-
#75000
0-
#75500
b0 $
b0 ;
b0 ?
b11 @
1"
1#
b1 >
1!
1.
1-
#76000
0-
#76500
0"
0#
0!
b1 A
02
07
b11 4
b100 9
06
0.
1-
#77000
0-
#77500
bx 1
bx <
1-
#78000
0-
#78500
1-
#79000
0-
#79500
b11 $
b11 ;
b11 ?
b10 >
1!
1.
17
1-
#80000
0-
#80500
b0 $
b0 ;
b0 ?
1"
1#
b1 >
b10 A
12
16
b11 1
b11 <
b11 /
b11001 8
1-
#81000
0-
#81500
0"
b11 $
b11 ;
b11 ?
b10 >
0#
b1 A
b0 4
02
1-
#82000
0-
#82500
0!
b10 A
12
0.
b11010 8
1-
#83000
0-
#83500
1-
#84000
0-
#84500
b0 $
b0 ;
b0 ?
1"
1#
b1 >
1!
1.
1-
#85000
0-
#85500
0"
b10 >
0#
b11 $
b11 ;
b11 ?
b1 A
b10 4
07
b0 1
b0 <
02
1-
#86000
0-
#86500
0!
b10 A
12
0.
b11011 8
1-
#87000
0-
#87500
b0 $
b0 ;
b0 ?
b0 @
1"
1#
b1 >
1!
1.
1-
#88000
0-
#88500
0"
0#
0!
b1 A
02
06
bx 1
bx <
0.
1-
#89000
0-
#89500
b10 >
1!
1.
1-
#90000
0-
#90500
0!
0%
b10 >
1#
b10 A
12
b0 /
b11100 8
1-
#91000
0-
#91500
0#
0.
1-
#92000
0-
#92500
17
1-
#93000
0-
#93500
1!
b10 @
b1 >
1"
1%
1#
b1 4
1.
07
16
b10 1
b10 <
1-
#94000
0-
#94500
0#
b10 >
0"
b10 $
b10 ;
b10 ?
b1 A
02
06
bx 1
bx <
1-
#95000
0-
#95500
0!
0%
b10 >
1#
b10 A
12
b10 /
b11101 8
1-
#96000
0-
#96500
17
1-
#97000
0-
#97500
1%
0#
0"
b11 4
0.
16
b1 1
b1 <
1-
#98000
0-
#98500
b0 $
b0 ;
b0 ?
b1 @
1"
1#
b1 >
1!
1.
1-
#99000
0-
#99500
0"
0#
0!
b1 A
b10 4
0.
b11 1
b11 <
02
1-
#100000
0-
#100500
b1 $
b1 ;
b1 ?
b10 >
1!
1.
1-
#101000
0-
#101500
1"
b0 $
b0 ;
b0 ?
b11 @
b1 >
1#
b10 A
12
b1 /
b11110 8
1-
#102000
0-
#102500
0"
b10 >
0#
b11 $
b11 ;
b11 ?
b1 A
02
b1 4
b10 1
b10 <
1-
#103000
0-
#103500
0!
b10 A
0.
12
b11 /
b11111 8
1-
#104000
0-
#104500
1-
#105000
0-
#105500
b0 $
b0 ;
b0 ?
b10 @
1"
1#
b1 >
1!
1.
1-
#106000
0-
#106500
0"
0#
0!
b1 A
02
b10 4
0.
07
b1 1
b1 <
1-
#107000
0-
#107500
1-
#108000
0-
#108500
b10 $
b10 ;
b10 ?
b10 >
1!
1.
1-
#109000
0-
#109500
0!
b10 A
0.
12
b10 /
b100000 8
1-
#110000
0-
#110500
b0 $
b0 ;
b0 ?
b1 @
1"
1#
b1 >
1!
1.
1-
#111000
0-
#111500
0"
0#
0!
b1 A
06
bx 1
bx <
0.
02
1-
#112000
0-
#112500
b1 $
b1 ;
b1 ?
b10 >
1!
1.
17
1-
#113000
0-
#113500
b0 $
b0 ;
b0 ?
b10 @
1"
1#
b1 >
b10 A
07
16
b10 1
b10 <
12
b1 /
b100001 8
1-
#114000
0-
#114500
0"
0#
0!
b1 A
02
06
bx 1
bx <
0.
1-
#115000
0-
#115500
b10 $
b10 ;
b10 ?
b10 >
1!
1.
17
1-
#116000
0-
#116500
b0 $
b0 ;
b0 ?
1"
1#
b1 >
b10 A
12
b11 4
07
16
b10 1
b10 <
b10 /
b100010 8
1-
#117000
0-
#117500
0"
0#
0!
b1 A
06
bx 1
bx <
0.
17
02
1-
#118000
0-
#118500
b0 4
07
16
b11 1
b11 <
1-
#119000
0-
#119500
1-
#120000
0-
#120500
1-
#121000
0-
#121500
b10 $
b10 ;
b10 ?
b10 >
1!
1.
1-
#122000
0-
#122500
0!
b10 A
12
0.
b100011 8
1-
#123000
0-
#123500
1-
#124000
0-
#124500
b0 $
b0 ;
b0 ?
b11 @
1"
1#
b1 >
1!
1.
1-
#125000
0-
#125500
0#
b10 >
0"
b11 $
b11 ;
b11 ?
b1 A
06
bx 1
bx <
17
02
1-
#126000
0-
#126500
0!
b10 A
12
b1 4
0.
16
b0 1
b0 <
b11 /
b100100 8
1-
#127000
0-
#127500
b0 $
b0 ;
b0 ?
b0 @
1"
1#
b1 >
1!
1.
1-
#128000
0-
#128500
0"
b10 >
0#
b1 A
02
b0 4
07
b1 1
b1 <
1-
#129000
0-
#129500
0!
b10 A
0.
12
b0 /
b100101 8
1-
#130000
0-
#130500
b1 @
1"
1#
b1 >
1!
1.
1-
#131000
0-
#131500
0"
0#
0!
b1 A
06
bx 1
bx <
0.
17
02
1-
#132000
0-
#132500
1!
b10 >
b1 $
b1 ;
b1 ?
1.
b11 4
07
16
b0 1
b0 <
1-
#133000
0-
#133500
1"
b0 $
b0 ;
b0 ?
b0 @
b1 >
1#
b10 A
12
b1 /
b100110 8
1-
#134000
0-
#134500
0"
0#
0!
b1 A
02
06
bx 1
bx <
0.
1-
#135000
0-
#135500
1-
#136000
0-
#136500
17
1-
#137000
0-
#137500
b10 4
07
16
b11 1
b11 <
1-
#138000
0-
#138500
b10 >
1!
1.
1-
#139000
0-
#139500
1"
b11 @
b1 >
1#
b10 A
12
b0 /
b100111 8
1-
#140000
0-
#140500
0#
b10 >
0"
b11 $
b11 ;
b11 ?
b1 A
02
06
bx 1
bx <
1-
#141000
0-
#141500
0%
0!
b10 A
0.
17
12
b11 /
b101000 8
1-
#142000
0-
#142500
1%
b0 4
16
b10 1
b10 <
1-
#143000
0-
#143500
b0 $
b0 ;
b0 ?
b10 @
1"
1#
b1 >
1!
1.
1-
#144000
0-
#144500
0"
0#
0!
b1 A
02
b1 4
0.
b0 1
b0 <
1-
#145000
0-
#145500
b10 $
b10 ;
b10 ?
b10 >
1!
1.
1-
#146000
0-
#146500
0!
b10 A
12
0.
b10 /
b101001 8
1-
#147000
0-
#147500
b0 $
b0 ;
b0 ?
b0 @
1"
1#
b1 >
1!
1.
1-
#148000
0-
#148500
0"
b10 >
0#
b1 A
02
b10 4
b1 1
b1 <
1-
#149000
0-
#149500
1"
b1 @
b1 >
1#
b10 A
12
b0 /
b101010 8
1-
#150000
0-
#150500
0"
b10 >
0#
b1 $
b1 ;
b1 ?
b1 A
02
07
b10 1
b10 <
1-
#151000
0-
#151500
1"
b0 $
b0 ;
b0 ?
b10 @
b1 >
1#
b10 A
12
b1 /
b101011 8
1-
#152000
0-
#152500
0"
0#
0!
b1 A
02
06
bx 1
bx <
0.
17
1-
#153000
0-
#153500
1!
b10 >
b10 $
b10 ;
b10 ?
b11 4
1.
07
16
b10 1
b10 <
1-
#154000
0-
#154500
1"
b0 $
b0 ;
b0 ?
b1 >
1#
b10 A
12
b10 /
b101100 8
1-
#155000
0-
#155500
0"
0#
0!
b1 A
06
bx 1
bx <
0.
02
1-
#156000
0-
#156500
1-
#157000
0-
#157500
17
1-
#158000
0-
#158500
07
16
b11 1
b11 <
1-
#159000
0-
#159500
b10 $
b10 ;
b10 ?
b10 >
1!
1.
1-
#160000
0-
#160500
0!
b10 A
12
0.
b101101 8
1-
#161000
0-
#161500
b0 $
b0 ;
b0 ?
b11 @
1"
1#
b1 >
1!
1.
1-
#162000
0-
#162500
0#
b10 >
0"
b11 $
b11 ;
b11 ?
b1 A
02
06
bx 1
bx <
1-
#163000
0-
#163500
0!
0%
b10 >
1#
b10 A
12
b11 /
b101110 8
1-
#164000
0-
#164500
1-
#165000
0-
#165500
0#
0.
1-
#166000
0-
#166500
17
1-
#167000
0-
#167500
1%
b1 4
0.
16
b11 1
b11 <
1-
#168000
0-
#168500
1-
#169000
0-
#169500
b0 $
b0 ;
b0 ?
1"
1#
b1 >
1!
1.
1-
#170000
0-
#170500
0"
0#
0!
b1 A
02
b11 4
0.
b1 1
b1 <
1-
#171000
0-
#171500
b11 $
b11 ;
b11 ?
b10 >
1!
1.
1-
#172000
0-
#172500
0!
b10 A
12
0.
b101111 8
1-
#173000
0-
#173500
1-
#174000
0-
#174500
1-
#175000
0-
#175500
b0 $
b0 ;
b0 ?
b1 @
1"
1#
b1 >
1!
1.
1-
#176000
0-
#176500
0"
b10 >
0#
b1 $
b1 ;
b1 ?
b1 A
02
b0 4
07
b11 1
b11 <
1-
#177000
0-
#177500
0!
b10 A
0.
12
b1 /
b110000 8
1-
#178000
0-
#178500
1-
#179000
0-
#179500
1-
#180000
0-
#180500
1-
#181000
0-
#181500
b0 $
b0 ;
b0 ?
b11 @
1"
1#
b1 >
1!
1.
1-
#182000
0-
#182500
0#
b10 >
0"
b11 $
b11 ;
b11 ?
b1 A
02
06
bx 1
bx <
17
1-
#183000
0-
#183500
b0 $
b0 ;
b0 ?
b0 @
1"
1#
b1 >
b10 A
1.
07
16
b0 1
b0 <
12
b11 /
b110001 8
1-
#184000
0-
#184500
0#
b10 >
0"
b1 A
02
06
bx 1
bx <
17
1-
#185000
0-
#185500
1"
1#
b1 >
b10 A
b10 4
07
16
b0 1
b0 <
12
b0 /
b110010 8
1-
#186000
0-
#186500
0#
b10 >
0"
b1 A
02
06
bx 1
bx <
17
1-
#187000
0-
#187500
0!
b10 A
b11 4
0.
16
b10 1
b10 <
12
b110011 8
1-
#188000
0-
#188500
1-
#189000
0-
#189500
1-
#190000
0-
#190500
b10 @
1"
1#
b1 >
1!
1.
1-
#191000
0-
#191500
0"
0#
0!
b1 A
b1 4
0.
b11 1
b11 <
02
1-
#192000
0-
#192500
1-
#193000
0-
#193500
b10 $
b10 ;
b10 ?
b10 >
1!
1.
1-
#194000
0-
#194500
1"
b0 $
b0 ;
b0 ?
b11 @
b1 >
1#
b10 A
12
b10 /
b110100 8
1-
#195000
0-
#195500
0"
0#
0!
b1 A
0.
b1 1
b1 <
02
1-
#196000
0-
#196500
1-
#197000
0-
#197500
1-
#198000
0-
#198500
1-
#199000
0-
#199500
b11 $
b11 ;
b11 ?
b10 >
1!
1.
1-
#200000
0-
#200500
0!
b10 A
12
0.
b11 /
b110101 8
1-
#201000
0-
#201500
b0 $
b0 ;
b0 ?
b1 @
1"
1#
b1 >
1!
1.
1-
#202000
0-
#202500
0"
b1 $
b1 ;
b1 ?
b10 >
0#
b1 A
02
b0 4
1-
#203000
0-
#203500
0!
b10 A
0.
12
b1 /
b110110 8
1-
#204000
0-
#204500
1-
#205000
0-
#205500
1-
#206000
0-
#206500
b0 $
b0 ;
b0 ?
1"
1#
b1 >
1!
1.
1-
#207000
0-
#207500
0"
0#
0!
b1 A
0.
07
b0 1
b0 <
02
1-
#208000
0-
#208500
1-
#209000
0-
#209500
b1 $
b1 ;
b1 ?
b10 >
1!
1.
1-
#210000
0-
#210500
1"
b0 $
b0 ;
b0 ?
b0 @
b1 >
1#
b10 A
12
b110111 8
1-
#211000
0-
#211500
0#
b10 >
0"
b1 A
06
bx 1
bx <
02
1-
#212000
0-
#212500
0%
0!
b10 A
12
0.
17
b0 /
b111000 8
1-
#213000
0-
#213500
1!
b1 >
1"
1%
1#
1.
b10 4
07
16
b0 1
b0 <
1-
#214000
0-
#214500
0#
b10 >
0"
b1 A
02
06
bx 1
bx <
1-
#215000
0-
#215500
0%
0!
b10 A
0.
12
b111001 8
1-
#216000
0-
#216500
1#
1.
1-
#217000
0-
#217500
0#
0.
1-
#218000
0-
#218500
1-
#219000
0-
#219500
17
1-
#220000
0-
#220500
1%
b1 4
16
b10 1
b10 <
1-
#221000
0-
#221500
1-
#222000
0-
#222500
b10 @
1"
1#
b1 >
1!
1.
1-
#223000
0-
#223500
0"
0#
0!
b1 A
b10 4
0.
b1 1
b1 <
02
1-
#224000
0-
#224500
1-
#225000
0-
#225500
b10 $
b10 ;
b10 ?
b10 >
1!
1.
1-
#226000
0-
#226500
1"
b0 $
b0 ;
b0 ?
b1 @
b1 >
1#
b10 A
12
b10 /
b111010 8
1-
#227000
0-
#227500
0"
b10 >
0#
b1 $
b1 ;
b1 ?
b1 A
b1 4
07
b10 1
b10 <
02
1-
#228000
0-
#228500
1"
b0 $
b0 ;
b0 ?
b10 @
b1 >
1#
b10 A
12
b1 /
b111011 8
1-
#229000
0-
#229500
0#
b10 >
0"
b10 $
b10 ;
b10 ?
b1 A
06
bx 1
bx <
02
1-
#230000
0-
#230500
0%
0!
b10 A
12
0.
17
b10 /
b111100 8
1-
#231000
0-
#231500
1%
b0 4
16
b1 1
b1 <
1-
#232000
0-
#232500
b0 $
b0 ;
b0 ?
b1 @
1"
1#
b1 >
1!
1.
1-
#233000
0-
#233500
0"
0#
0!
b1 A
0.
b0 1
b0 <
02
1-
#234000
0-
#234500
1-
#235000
0-
#235500
b1 $
b1 ;
b1 ?
b10 >
1!
1.
1-
#236000
0-
#236500
0!
b10 A
12
0.
b1 /
b111101 8
1-
#237000
0-
#237500
1-
#238000
0-
#238500
1-
#239000
0-
#239500
1-
#240000
0-
#240500
b0 $
b0 ;
b0 ?
b0 @
1"
1#
b1 >
1!
1.
1-
#241000
0-
#241500
0"
b10 >
0#
b1 A
b10 4
02
1-
#242000
0-
#242500
0!
b10 A
12
0.
b0 /
b111110 8
1-
#243000
0-
#243500
1-
#244000
0-
#244500
1"
1#
b1 >
1!
1.
1-
#245000
0-
#245500
0"
0#
0!
b1 A
b1 4
0.
07
b10 1
b10 <
02
1-
#246000
0-
#246500
1-
#247000
0-
#247500
1-
#248000
0-
#248500
1-
#249000
0-
#249500
1-
#250000
0-
#250500
b10 >
1!
1.
1-
#251000
0-
#251500
0!
b10 A
0.
12
b111111 8
1-
#252000
0-
#252500
b10 @
1"
1#
b1 >
1!
1.
1-
#253000
0-
#253500
0#
b10 >
0"
b10 $
b10 ;
b10 ?
b1 A
06
bx 1
bx <
02
1-
#254000
0-
#254500
0!
0%
b10 >
1#
b10 A
12
17
b10 /
b1000000 8
1-
#255000
0-
#255500
b0 $
b0 ;
b0 ?
b1 @
b1 >
1!
1%
1"
b0 4
07
16
b1 1
b1 <
1-
#256000
0-
#256500
0#
b10 >
0"
b1 $
b1 ;
b1 ?
b1 A
02
06
bx 1
bx <
17
1-
#257000
0-
#257500
0!
b10 A
0.
b10 4
07
16
b0 1
b0 <
12
b1 /
b1000001 8
1-
#258000
0-
#258500
b0 $
b0 ;
b0 ?
b0 @
1"
1#
b1 >
1!
1.
1-
#259000
0-
#259500
0"
0#
0!
b1 A
06
bx 1
bx <
0.
17
02
1-
#260000
0-
#260500
1!
b10 >
1.
16
b10 1
b10 <
1-
#261000
0-
#261500
0!
b10 A
0.
12
b0 /
b1000010 8
1-
#262000
0-
#262500
1-
#263000
0-
#263500
b10 @
1"
1#
b1 >
1!
1.
1-
#264000
0-
#264500
0"
0#
0!
b1 A
02
0.
07
1-
#265000
0-
#265500
1-
#266000
0-
#266500
1-
#267000
0-
#267500
b10 $
b10 ;
b10 ?
b10 >
1!
1.
1-
#268000
0-
#268500
1"
b0 $
b0 ;
b0 ?
b1 >
1#
b10 A
12
b10 /
b1000011 8
1-
#269000
0-
#269500
0"
0#
0!
b1 A
06
bx 1
bx <
0.
17
02
1-
#270000
0-
#270500
b11 4
07
16
b10 1
b10 <
1-
#271000
0-
#271500
b10 $
b10 ;
b10 ?
b10 >
1!
1.
1-
#272000
0-
#272500
0!
b10 A
12
0.
b1000100 8
1-
#273000
0-
#273500
b0 $
b0 ;
b0 ?
1"
1#
b1 >
1!
1.
1-
#274000
0-
#274500
0"
0#
0!
b1 A
02
06
bx 1
bx <
0.
1-
#275000
0-
#275500
b10 $
b10 ;
b10 ?
b10 >
1!
1.
17
1-
#276000
0-
#276500
b0 $
b0 ;
b0 ?
b11 @
1"
1#
b1 >
b10 A
12
1.
16
b11 1
b11 <
b1000101 8
1-
#277000
0-
#277500
0"
b11 $
b11 ;
b11 ?
b10 >
0#
b1 A
b0 4
07
02
1-
#278000
0-
#278500
0!
b10 A
12
0.
b11 /
b1000110 8
1-
#279000
0-
#279500
b0 $
b0 ;
b0 ?
1"
1#
b1 >
1!
1.
1-
#280000
0-
#280500
0"
0#
0!
b1 A
02
06
bx 1
bx <
0.
17
1-
#281000
0-
#281500
1!
b10 >
b11 $
b11 ;
b11 ?
1.
b11 4
07
16
b0 1
b0 <
1-
#282000
0-
#282500
1"
b0 $
b0 ;
b0 ?
b0 @
b1 >
1#
b10 A
12
b1000111 8
1-
#283000
0-
#283500
0#
b10 >
0"
b1 A
06
bx 1
bx <
17
02
1-
#284000
0-
#284500
0!
b10 A
12
0.
07
16
b11 1
b11 <
b0 /
b1001000 8
1-
#285000
0-
#285500
b11 @
1"
1#
b1 >
1!
1.
1-
#286000
0-
#286500
0"
0#
0!
b1 A
02
06
bx 1
bx <
0.
17
1-
#287000
0-
#287500
1!
b10 >
b11 $
b11 ;
b11 ?
1.
07
16
b11 1
b11 <
1-
#288000
0-
#288500
0!
b10 A
12
0.
b11 /
b1001001 8
1-
#289000
0-
#289500
b0 $
b0 ;
b0 ?
1"
1#
b1 >
1!
1.
1-
#290000
0-
#290500
0#
b10 >
0"
b11 $
b11 ;
b11 ?
b1 A
02
06
bx 1
bx <
17
1-
#291000
0-
#291500
0!
b10 A
0.
07
16
b11 1
b11 <
12
b1001010 8
1-
#292000
0-
#292500
1-
#293000
0-
#293500
1-
#294000
0-
#294500
1-
#295000
0-
#295500
1-
#296000
0-
#296500
1-
#297000
0-
#297500
b0 $
b0 ;
b0 ?
1"
1#
b1 >
1!
1.
1-
#298000
0-
#298500
0#
b10 >
0"
b11 $
b11 ;
b11 ?
b1 A
02
06
bx 1
bx <
1-
#299000
0-
#299500
0!
0%
b10 >
1#
b10 A
17
12
b1001011 8
1-
#300000
0-
#300500
1%
0#
0"
b1 4
0.
16
b11 1
b11 <
1-
#301000
0-
#301500
1-
#302000
0-
#302500
b0 $
b0 ;
b0 ?
1"
1#
b1 >
1!
1.
1-
#303000
0-
#303500
0"
0#
0!
b1 A
0.
b1 1
b1 <
02
1-
#304000
0-
#304500
b11 $
b11 ;
b11 ?
b10 >
1!
1.
1-
#305000
0-
#305500
0!
b10 A
0.
12
b1001100 8
1-
#306000
0-
#306500
b0 $
b0 ;
b0 ?
b1 @
1"
1#
b1 >
1!
1.
1-
#307000
0-
#307500
0"
0#
0!
b1 A
b10 4
0.
02
1-
#308000
0-
#308500
b1 $
b1 ;
b1 ?
b10 >
1!
1.
1-
#309000
0-
#309500
1"
b0 $
b0 ;
b0 ?
b1 >
1#
b10 A
12
b1 /
b1001101 8
1-
#310000
0-
#310500
0"
0#
0!
b1 A
02
b11 4
0.
07
b10 1
b10 <
1-
#311000
0-
#311500
1-
#312000
0-
#312500
1-
#313000
0-
#313500
b1 $
b1 ;
b1 ?
b10 >
1!
1.
1-
#314000
0-
#314500
0!
b10 A
12
0.
b1001110 8
1-
#315000
0-
#315500
b0 $
b0 ;
b0 ?
b10 @
1"
1#
b1 >
1!
1.
1-
#316000
0-
#316500
0"
0#
0!
b1 A
02
06
bx 1
bx <
0.
17
1-
#317000
0-
#317500
b1 4
16
b11 1
b11 <
1-
#318000
0-
#318500
b10 $
b10 ;
b10 ?
b10 >
1!
1.
1-
#319000
0-
#319500
1"
b0 $
b0 ;
b0 ?
b11 @
b1 >
1#
b10 A
12
b10 /
b1001111 8
1-
#320000
0-
#320500
0"
0#
0!
b1 A
02
b10 4
0.
07
b1 1
b1 <
1-
#321000
0-
#321500
1-
#322000
0-
#322500
1-
#323000
0-
#323500
1-
#324000
0-
#324500
b11 $
b11 ;
b11 ?
b10 >
1!
1.
1-
#325000
0-
#325500
1"
b0 $
b0 ;
b0 ?
b1 @
b1 >
1#
b10 A
12
b11 /
b1010000 8
1-
#326000
0-
#326500
0#
b10 >
0"
b1 $
b1 ;
b1 ?
b1 A
02
06
bx 1
bx <
17
1-
#327000
0-
#327500
b0 $
b0 ;
b0 ?
b10 @
1"
1#
b1 >
b10 A
07
16
b10 1
b10 <
12
b1 /
b1010001 8
1-
#328000
0-
#328500
0"
0#
0!
b1 A
02
06
bx 1
bx <
0.
1-
#329000
0-
#329500
b10 $
b10 ;
b10 ?
b10 >
1!
1.
1-
#330000
0-
#330500
0%
0!
b10 A
12
0.
17
b10 /
b1010010 8
1-
#331000
0-
#331500
1!
b0 $
b0 ;
b0 ?
b1 >
1"
1%
1#
1.
16
b10 1
b10 <
1-
#332000
0-
#332500
0"
0#
0!
b1 A
02
b0 4
0.
1-
#333000
0-
#333500
1-
#334000
0-
#334500
b10 $
b10 ;
b10 ?
b10 >
1!
1.
1-
#335000
0-
#335500
1"
b0 $
b0 ;
b0 ?
b1 >
1#
b10 A
12
b1010011 8
1-
#336000
0-
#336500
0"
b10 >
0#
b10 $
b10 ;
b10 ?
b1 A
02
b11 4
b0 1
b0 <
1-
#337000
0-
#337500
1"
b0 $
b0 ;
b0 ?
b0 @
b1 >
1#
b10 A
12
b1010100 8
1-
#338000
0-
#338500
0"
0#
0!
b1 A
02
0.
07
b11 1
b11 <
1-
#339000
0-
#339500
b10 >
1!
1.
1-
#340000
0-
#340500
1"
b11 @
b1 >
1#
b10 A
12
b0 /
b1010101 8
1-
#341000
0-
#341500
0"
0#
0!
b1 A
06
bx 1
bx <
0.
17
02
1-
#342000
0-
#342500
b0 4
16
b11 1
b11 <
1-
