08_flow_control/08_05_gearbox_1_to_2_fc/dump.vcd
$date
	Sat Apr 04 00:42:24 2026
$end
$version
	Icarus Verilog
$end
$timescale
	1s
$end
$scope module testbench $end
$var wire 1 ! down_handshake $end
$var wire 1 " up_handshake $end
$var wire 1 # up_ready $end
$var wire 4 $ out_token [3:0] $end
$var wire 1 % down_valid $end
$var parameter 33 & MAX_TOKEN $end
$var parameter 32 ' N $end
$var parameter 32 ( TIMEOUT $end
$var parameter 32 ) WIDTH $end
$var parameter 32 * pro_ready $end
$var parameter 32 + pro_token $end
$var parameter 32 , pro_valid $end
$var reg 1 - clk $end
$var reg 1 . down_ready $end
$var reg 4 / expected_token [3:0] $end
$var reg 2 0 in_token [1:0] $end
$var reg 1 1 rst $end
$var reg 4 2 sample [3:0] $end
$var reg 1 3 up_valid $end
$var reg 1 4 valid_tmp $end
$var integer 32 5 count_token [31:0] $end
$var integer 32 6 stage [31:0] $end
$var reg 1 7 was_reset $end
$scope module dut $end
$var wire 1 - clk $end
$var wire 4 8 down_data [3:0] $end
$var wire 1 . down_ready $end
$var wire 1 1 rst $end
$var wire 2 9 up_data [1:0] $end
$var wire 1 # up_ready $end
$var wire 1 3 up_valid $end
$var wire 1 % down_valid $end
$var parameter 32 : width $end
$var reg 2 ; first_data [1:0] $end
$var reg 4 < full_data [3:0] $end
$var reg 2 = next_state [1:0] $end
$var reg 2 > second_data [1:0] $end
$var reg 2 ? state [1:0] $end
$upscope $end
$upscope $end
$enddefinitions $end
$comment Show the parameter values. $end
$dumpall
b10 :
b110010 ,
b110010 +
b110010 *
b10 )
b1100001101010000 (
b1100100 '
b1111 &
$end
#0
$dumpvars
bx ?
bx >
bx =
bx <
bx ;
bx 9
bx 8
07
b0 6
b0 5
x4
x3
b0 2
x1
bx 0
bx /
x.
0-
x%
bx $
x#
x"
x!
$end
#500
1-
#1000
0-
#1500
1#
0!
b0 =
0%
b0 ?
11
1-
#2000
0-
#2500
17
1-
#3000
0-
#3500
b10 ;
b1 =
1"
b10 0
b10 9
13
b1001 2
1.
01
1-
#4000
0-
#4500
b1 >
b10 =
b10xx $
b10xx 8
b10xx <
b1 0
b1 9
b1 ?
1-
#5000
0-
#5500
1!
b1 ;
b1 =
b1001 $
b1001 8
b1001 <
1%
b10 ?
b100 2
1-
#6000
0-
#6500
0!
b0 >
b10 =
b101 $
b101 8
b101 <
b0 0
b0 9
0%
b1 ?
b1001 /
b1 5
1-
#7000
0-
#7500
1!
b0 ;
b1 =
b100 $
b100 8
b100 <
1%
b10 ?
b0 2
1-
#8000
0-
#8500
0!
b10 =
b0 $
b0 8
b0 <
0%
b1 ?
b100 /
b10 5
1-
#9000
0-
#9500
1!
b1 =
1%
b10 ?
b11 2
1-
#10000
0-
#10500
0!
b11 >
b10 =
b11 0
b11 9
0%
b1 ?
b0 /
b11 5
1-
#11000
0-
#11500
1!
b10 ;
b1 =
b10 0
b10 9
b11 $
b11 8
b11 <
1%
b10 ?
b1000 2
1-
#12000
0-
#12500
0!
b0 >
b10 =
b1011 $
b1011 8
b1011 <
b0 0
b0 9
0%
b1 ?
b11 /
b100 5
1-
#13000
0-
#13500
1!
b11 ;
b1 =
b11 0
b11 9
b1000 $
b1000 8
b1000 <
1%
b10 ?
b1100 2
1-
#14000
0-
#14500
0!
b10 =
b1100 $
b1100 8
b1100 <
b0 0
b0 9
0%
b1 ?
b1000 /
b101 5
1-
#15000
0-
#15500
1!
b0 ;
b1 =
1%
b10 ?
b11 2
1-
#16000
0-
#16500
0!
b11 >
b10 =
b0 $
b0 8
b0 <
b11 0
b11 9
0%
b1 ?
b1100 /
b110 5
1-
#17000
0-
#17500
1!
b1 =
b0 0
b0 9
b11 $
b11 8
b11 <
1%
b10 ?
b0 2
1-
#18000
0-
#18500
0!
b0 >
b10 =
0%
b1 ?
b11 /
b111 5
1-
#19000
0-
#19500
1!
b10 ;
b1 =
b10 0
b10 9
b0 $
b0 8
b0 <
1%
b10 ?
b1000 2
1-
#20000
0-
#20500
0!
b10 =
b1000 $
b1000 8
b1000 <
b0 0
b0 9
0%
b1 ?
b0 /
b1000 5
1-
#21000
0-
#21500
1!
b1 =
b10 0
b10 9
1%
b10 ?
1-
#22000
0-
#22500
0!
b10 =
b0 0
b0 9
0%
b1 ?
b1000 /
b1001 5
1-
#23000
0-
#23500
1!
04
b1011 2
1%
b10 ?
b0 =
0"
03
1-
#24000
0-
#24500
0!
bx 0
bx 9
0%
b0 ?
b1010 5
1-
#25000
0-
#25500
1-
#26000
0-
#26500
1-
#27000
0-
#27500
14
1-
#28000
0-
#28500
b1 =
1"
b10 0
b10 9
13
1-
#29000
0-
#29500
b11 >
b10 =
b11 0
b11 9
b1 ?
1-
#30000
0-
#30500
1!
b1 =
b1011 $
b1011 8
b1011 <
b10 0
b10 9
1%
b10 ?
1-
#31000
0-
#31500
0!
b10 =
b11 0
b11 9
0%
b1 ?
b1011 /
b1011 5
1-
#32000
0-
#32500
1!
b1 =
b10 0
b10 9
1%
b10 ?
1-
#33000
0-
#33500
0!
b10 =
b11 0
b11 9
04
0%
b1 ?
b1100 5
1-
#34000
0-
#34500
0"
1!
b0 =
bx 0
bx 9
14
03
1%
b10 ?
1-
#35000
0-
#35500
1"
0!
b1 =
b10 0
b10 9
13
0%
b0 ?
b1101 5
1-
#36000
0-
#36500
b10 =
b11 0
b11 9
b1 ?
1-
#37000
0-
#37500
1!
b1 =
b10 0
b10 9
1%
b10 ?
1-
#38000
0-
#38500
0!
b10 =
b11 0
b11 9
04
0%
b1 ?
b1110 5
1-
#39000
0-
#39500
0"
1!
b0 =
bx 0
bx 9
03
1%
b10 ?
1-
#40000
0-
#40500
0!
14
0%
b0 ?
b1111 5
1-
#41000
0-
#41500
b1 =
1"
b10 0
b10 9
13
1-
#42000
0-
#42500
b10 =
b11 0
b11 9
b1 ?
1-
#43000
0-
#43500
1!
b1 =
b10 0
b10 9
1%
b10 ?
1-
#44000
0-
#44500
0!
b10 =
b11 0
b11 9
0%
b1 ?
b10000 5
1-
#45000
0-
#45500
1!
b1 =
b10 0
b10 9
1%
b10 ?
1-
#46000
0-
#46500
0!
b10 =
b11 0
b11 9
04
0%
b1 ?
b10001 5
1-
#47000
0-
#47500
0"
1!
b0 =
bx 0
bx 9
14
03
1%
b10 ?
1-
#48000
0-
#48500
1"
0!
b1 =
b10 0
b10 9
13
0%
b0 ?
b10010 5
1-
#49000
0-
#49500
b10 =
b11 0
b11 9
b1 ?
1-
#50000
0-
#50500
1!
b1 =
b10 0
b10 9
1%
b10 ?
1-
#51000
0-
#51500
0!
b10 =
b11 0
b11 9
0%
b1 ?
b10011 5
1-
#52000
0-
#52500
0"
1!
b0 =
b11 2
03
1%
b10 ?
1-
#53000
0-
#53500
1"
0!
b0 ;
b1 =
0.
b0 0
b0 9
13
0%
b0 ?
b10100 5
1-
#54000
0-
#54500
b10 =
b11 $
b11 8
b11 <
b1001 2
1.
b11 0
b11 9
b1 ?
1-
#55000
0-
#55500
0"
0#
0.
b10 0
b10 9
1%
b10 ?
1-
#56000
0-
#56500
1-
#57000
0-
#57500
b10 ;
1"
1#
b1 =
1!
1.
1-
#58000
0-
#58500
0!
b1 >
b10 =
b1011 $
b1011 8
b1011 <
b0 2
b1 0
b1 9
0%
b1 ?
b11 /
b10101 5
1-
#59000
0-
#59500
1!
b0 ;
b1 =
b0 0
b0 9
b1001 $
b1001 8
b1001 <
1%
b10 ?
1-
#60000
0-
#60500
0!
b0 >
b10 =
b1 $
b1 8
b1 <
b110 2
0.
0%
b1 ?
b1001 /
b10110 5
1-
#61000
0-
#61500
1!
b1 ;
b1 =
1.
b1 0
b1 9
b0 $
b0 8
b0 <
1%
b10 ?
1-
#62000
0-
#62500
0!
b10 >
b10 =
b100 $
b100 8
b100 <
b1000 2
b10 0
b10 9
0%
b1 ?
b0 /
b10111 5
1-
#63000
0-
#63500
1!
b10 ;
b1 =
b110 $
b110 8
b110 <
1%
b10 ?
1-
#64000
0-
#64500
0!
b0 >
b10 =
b1010 $
b1010 8
b1010 <
0.
b0 0
b0 9
0%
b1 ?
b110 /
b11000 5
1-
#65000
0-
#65500
1!
b1 =
1.
b10 0
b10 9
b1000 $
b1000 8
b1000 <
1%
b10 ?
1-
#66000
0-
#66500
0!
b10 =
b1111 2
b0 0
b0 9
0%
b1 ?
b1000 /
b11001 5
1-
#67000
0-
#67500
0"
0#
0.
b11 0
b11 9
1%
b10 ?
1-
#68000
0-
#68500
1-
#69000
0-
#69500
1-
#70000
0-
#70500
b11 ;
1"
1#
b1 =
1!
1.
1-
#71000
0-
#71500
0!
b11 >
b10 =
1.
b1100 $
b1100 8
b1100 <
0%
b1 ?
b11010 5
1-
#72000
0-
#72500
0"
0#
b1111 $
b1111 8
b1111 <
0.
1%
b10 ?
1-
#73000
0-
#73500
1-
#74000
0-
#74500
1-
#75000
0-
#75500
1-
#76000
0-
#76500
1"
1#
b1 =
1!
1.
1-
#77000
0-
#77500
0!
b10 =
b11 2
1.
0%
b1 ?
b1111 /
b11011 5
1-
#78000
0-
#78500
0"
0#
0.
b0 0
b0 9
1%
b10 ?
1-
#79000
0-
#79500
1-
#80000
0-
#80500
1-
#81000
0-
#81500
b0 ;
1"
1#
b1 =
1!
1.
1-
#82000
0-
#82500
0!
b10 =
b11 $
b11 8
b11 <
b1000 2
b11 0
b11 9
1.
0%
b1 ?
b11100 5
1-
#83000
0-
#83500
0"
0#
0.
b10 0
b10 9
1%
b10 ?
1-
#84000
0-
#84500
1-
#85000
0-
#85500
1-
#86000
0-
#86500
1-
#87000
0-
#87500
1-
#88000
0-
#88500
1-
#89000
0-
#89500
1-
#90000
0-
#90500
1-
#91000
0-
#91500
b10 ;
1"
1#
b1 =
1!
1.
1-
#92000
0-
#92500
0!
b0 >
b10 =
b1011 $
b1011 8
b1011 <
b10 2
b0 0
b0 9
0%
b1 ?
b11 /
b11101 5
1-
#93000
0-
#93500
0"
1!
b0 =
b1100 2
03
b1000 $
b1000 8
b1000 <
1%
b10 ?
1-
#94000
0-
#94500
1"
0!
b11 ;
b1 =
13
b11 0
b11 9
0%
b0 ?
b1000 /
b11110 5
1-
#95000
0-
#95500
b10 =
04
b0 0
b0 9
b1100 $
b1100 8
b1100 <
b1 ?
1-
#96000
0-
#96500
0"
1!
b0 =
03
bx 0
bx 9
1%
b10 ?
1-
#97000
0-
#97500
0!
0.
0%
b0 ?
b1100 /
b11111 5
1-
#98000
0-
#98500
14
1-
#99000
0-
#99500
b1 =
1"
04
13
b11 0
b11 9
1-
#100000
0-
#100500
0"
03
bx 0
bx 9
14
b1 ?
1-
#101000
0-
#101500
b10 =
1"
04
b11 2
13
b0 0
b0 9
1-
#102000
0-
#102500
0#
0"
03
bx 0
bx 9
14
1%
b10 ?
1-
#103000
0-
#103500
b0 ;
1"
1#
1!
b1 =
1.
04
13
b0 0
b0 9
1-
#104000
0-
#104500
0"
0!
b0 $
b0 8
b0 <
03
bx 0
bx 9
0.
14
0%
b1 ?
b100000 5
1-
#105000
0-
#105500
b10 =
1"
b11 >
1.
04
b1 2
13
b11 0
b11 9
1-
#106000
0-
#106500
0"
1!
b0 =
b11 $
b11 8
b11 <
03
bx 0
bx 9
14
1%
b10 ?
1-
#107000
0-
#107500
1"
0!
b1 =
0.
13
b0 0
b0 9
0%
b0 ?
b11 /
b100001 5
1-
#108000
0-
#108500
b1 >
b10 =
1.
b1111 2
b1 0
b1 9
b1 ?
1-
#109000
0-
#109500
0"
0#
0.
04
b11 0
b11 9
b1 $
b1 8
b1 <
1%
b10 ?
1-
#110000
0-
#110500
b11 ;
1"
1#
b1 =
1!
1.
1-
#111000
0-
#111500
0"
0!
03
bx 0
bx 9
14
b1101 $
b1101 8
b1101 <
0%
b1 ?
b1 /
b100010 5
1-
#112000
0-
#112500
b10 =
1"
b11 >
0.
b101 2
13
b11 0
b11 9
1-
#113000
0-
#113500
1!
b1 ;
b1 =
1.
04
b1 0
b1 9
b1111 $
b1111 8
b1111 <
1%
b10 ?
1-
#114000
0-
#114500
0"
0!
b111 $
b111 8
b111 <
03
bx 0
bx 9
0.
0%
b1 ?
b1111 /
b100011 5
1-
#115000
0-
#115500
1-
#116000
0-
#116500
14
1-
#117000
0-
#117500
b10 =
1"
b1 >
04
b110 2
13
b1 0
b1 9
1-
#118000
0-
#118500
0"
1!
b0 =
b101 $
b101 8
b101 <
03
bx 0
bx 9
1.
14
1%
b10 ?
1-
#119000
0-
#119500
1"
0!
b1 =
04
13
b1 0
b1 9
0%
b0 ?
b101 /
b100100 5
1-
#120000
0-
#120500
0"
03
bx 0
bx 9
b1 ?
1-
#121000
0-
#121500
0.
1-
#122000
0-
#122500
1.
14
1-
#123000
0-
#123500
b10 =
1"
b10 >
0.
b1110 2
13
b10 0
b10 9
1-
#124000
0-
#124500
1!
b11 ;
b1 =
b110 $
b110 8
b110 <
1.
b11 0
b11 9
1%
b10 ?
1-
#125000
0-
#125500
0!
b10 =
0.
04
b10 0
b10 9
b1110 $
b1110 8
b1110 <
0%
b1 ?
b110 /
b100101 5
1-
#126000
0-
#126500
0#
0"
03
bx 0
bx 9
14
1%
b10 ?
1-
#127000
0-
#127500
1"
1#
1!
b1 =
1.
04
13
b11 0
b11 9
1-
#128000
0-
#128500
0"
0!
03
bx 0
bx 9
0.
0%
b1 ?
b1110 /
b100110 5
1-
#129000
0-
#129500
1.
14
1-
#130000
0-
#130500
b10 =
1"
0.
b1 2
13
b10 0
b10 9
1-
#131000
0-
#131500
0"
0#
b0 0
b0 9
1%
b10 ?
1-
#132000
0-
#132500
b0 ;
1"
1#
b1 =
1!
1.
1-
#133000
0-
#133500
0!
b1 >
b10 =
b1100 2
b1 0
b1 9
b10 $
b10 8
b10 <
0%
b1 ?
b100111 5
1-
#134000
0-
#134500
1!
b11 ;
b1 =
b1 $
b1 8
b1 <
04
b11 0
b11 9
1%
b10 ?
1-
#135000
0-
#135500
0"
0!
03
bx 0
bx 9
0.
14
b1101 $
b1101 8
b1101 <
0%
b1 ?
b1 /
b101000 5
1-
#136000
0-
#136500
b10 =
1"
b0 >
04
b1010 2
13
b0 0
b0 9
1-
#137000
0-
#137500
0"
1!
b0 =
03
bx 0
bx 9
1.
14
b1100 $
b1100 8
b1100 <
1%
b10 ?
1-
#138000
0-
#138500
1"
0!
b10 ;
b1 =
0.
04
13
b10 0
b10 9
0%
b0 ?
b1100 /
b101001 5
1-
#139000
0-
#139500
0"
03
bx 0
bx 9
b1000 $
b1000 8
b1000 <
b1 ?
1-
#140000
0-
#140500
14
1-
#141000
0-
#141500
b10 =
1"
b10 >
04
b1110 2
13
b10 0
b10 9
1-
#142000
0-
#142500
0"
1!
b0 =
b1010 $
b1010 8
b1010 <
03
bx 0
bx 9
1.
1%
b10 ?
1-
#143000
0-
#143500
0!
0.
14
0%
b0 ?
b1010 /
b101010 5
1-
#144000
0-
#144500
b1 =
1"
b11 ;
1.
13
b11 0
b11 9
1-
#145000
0-
#145500
b10 =
0.
b1000 2
b10 0
b10 9
b1110 $
b1110 8
b1110 <
b1 ?
1-
#146000
0-
#146500
0"
0#
1%
b10 ?
1-
#147000
0-
#147500
b10 ;
1"
1#
b1 =
1!
1.
1-
#148000
0-
#148500
0!
b0 >
b10 =
b1010 $
b1010 8
b1010 <
04
b1 2
b0 0
b0 9
0%
b1 ?
b1110 /
b101011 5
1-
#149000
0-
#149500
0#
0"
03
bx 0
bx 9
0.
14
b1000 $
b1000 8
b1000 <
1%
b10 ?
1-
#150000
0-
#150500
b0 ;
1"
1#
1!
b1 =
1.
13
b0 0
b0 9
1-
#151000
0-
#151500
0!
b1 >
b10 =
0.
b1010 2
b1 0
b1 9
b0 $
b0 8
b0 <
0%
b1 ?
b1000 /
b101100 5
1-
#152000
0-
#152500
0"
0#
b1 $
b1 8
b1 <
b10 0
b10 9
1%
b10 ?
1-
#153000
0-
#153500
b10 ;
1"
1#
b1 =
1!
1.
1-
#154000
0-
#154500
0!
b10 >
b10 =
b1001 $
b1001 8
b1001 <
0.
04
b100 2
0%
b1 ?
b1 /
b101101 5
1-
#155000
0-
#155500
0#
0"
03
bx 0
bx 9
14
b1010 $
b1010 8
b1010 <
1%
b10 ?
1-
#156000
0-
#156500
0.
13
b1 0
b1 9
1-
#157000
0-
#157500
1-
#158000
0-
#158500
1-
#159000
0-
#159500
1-
#160000
0-
#160500
b1 ;
1"
1#
b1 =
1!
1.
1-
#161000
0-
#161500
0!
b0 >
b10 =
0.
04
b1101 2
b0 0
b0 9
b110 $
b110 8
b110 <
0%
b1 ?
b1010 /
b101110 5
1-
#162000
0-
#162500
0#
0"
b100 $
b100 8
b100 <
03
bx 0
bx 9
1%
b10 ?
1-
#163000
0-
#163500
14
1-
#164000
0-
#164500
b11 ;
1"
1#
1!
b1 =
1.
13
b11 0
b11 9
1-
#165000
0-
#165500
0!
b1 >
b10 =
0.
b1001 2
b1 0
b1 9
b1100 $
b1100 8
b1100 <
0%
b1 ?
b100 /
b101111 5
1-
#166000
0-
#166500
0"
0#
b1101 $
b1101 8
b1101 <
b10 0
b10 9
1%
b10 ?
1-
#167000
0-
#167500
1-
#168000
0-
#168500
b10 ;
1"
1#
b1 =
1!
1.
1-
#169000
0-
#169500
0!
b10 =
b1100 2
b1 0
b1 9
b1001 $
b1001 8
b1001 <
0%
b1 ?
b1101 /
b110000 5
1-
#170000
0-
#170500
0"
0#
0.
b11 0
b11 9
1%
b10 ?
1-
#171000
0-
#171500
1-
#172000
0-
#172500
b11 ;
1"
1#
b1 =
1!
1.
1-
#173000
0-
#173500
0!
b0 >
b10 =
0.
04
b100 2
b0 0
b0 9
b1101 $
b1101 8
b1101 <
0%
b1 ?
b1001 /
b110001 5
1-
#174000
0-
#174500
0#
0"
b1100 $
b1100 8
b1100 <
03
bx 0
bx 9
14
1%
b10 ?
1-
#175000
0-
#175500
b1 ;
1"
1#
1!
b1 =
1.
04
13
b1 0
b1 9
1-
#176000
0-
#176500
0"
0!
b100 $
b100 8
b100 <
03
bx 0
bx 9
0%
b1 ?
b1100 /
b110010 5
1-
#177000
0-
#177500
0.
14
1-
#178000
0-
#178500
b10 =
1"
04
b1111 2
13
b0 0
b0 9
1-
#179000
0-
#179500
0"
1!
b0 =
03
bx 0
bx 9
1.
14
1%
b10 ?
1-
#180000
0-
#180500
1"
0!
b11 ;
b1 =
0.
13
b11 0
b11 9
0%
b0 ?
b100 /
b110011 5
1-
#181000
0-
#181500
b11 >
b10 =
1.
b1010 2
b1100 $
b1100 8
b1100 <
b1 ?
1-
#182000
0-
#182500
1!
b10 ;
b1 =
b1111 $
b1111 8
b1111 <
b10 0
b10 9
1%
b10 ?
1-
#183000
0-
#183500
0!
b10 >
b10 =
0.
b1011 2
b1011 $
b1011 8
b1011 <
0%
b1 ?
b1111 /
b110100 5
1-
#184000
0-
#184500
1!
b1 =
b1010 $
b1010 8
b1010 <
1.
1%
b10 ?
1-
#185000
0-
#185500
0!
b11 >
b10 =
0.
b111 2
b11 0
b11 9
0%
b1 ?
b1010 /
b110101 5
1-
#186000
0-
#186500
0"
0#
b1011 $
b1011 8
b1011 <
04
b1 0
b1 9
1%
b10 ?
1-
#187000
0-
#187500
1-
#188000
0-
#188500
1-
#189000
0-
#189500
b1 ;
1"
1#
b1 =
1!
1.
1-
#190000
0-
#190500
0"
0!
b111 $
b111 8
b111 <
03
bx 0
bx 9
0.
14
0%
b1 ?
b1011 /
b110110 5
1-
#191000
0-
#191500
b10 =
1"
1.
04
b100 2
13
b11 0
b11 9
1-
#192000
0-
#192500
0"
1!
b0 =
03
bx 0
bx 9
14
1%
b10 ?
1-
#193000
0-
#193500
1"
0!
b1 =
04
13
b1 0
b1 9
0%
b0 ?
b111 /
b110111 5
1-
#194000
0-
#194500
0"
03
bx 0
bx 9
0.
b1 ?
1-
#195000
0-
#195500
1.
1-
#196000
0-
#196500
1-
#197000
0-
#197500
14
1-
#198000
0-
#198500
b10 =
1"
b0 >
0.
04
b10 2
13
b0 0
b0 9
1-
#199000
0-
#199500
0"
1!
b0 =
03
bx 0
bx 9
1.
b100 $
b100 8
b100 <
1%
b10 ?
1-
#200000
0-
#200500
0!
0.
0%
b0 ?
b100 /
b111000 5
1-
#201000
0-
#201500
14
1-
#202000
0-
#202500
b1 =
1"
b0 ;
1.
13
b0 0
b0 9
1-
#203000
0-
#203500
b10 >
b10 =
b111 2
b10 0
b10 9
b0 $
b0 8
b0 <
b1 ?
1-
#204000
0-
#204500
0"
0#
b10 $
b10 8
b10 <
0.
04
b1 0
b1 9
1%
b10 ?
1-
#205000
0-
#205500
1-
#206000
0-
#206500
1-
#207000
0-
#207500
b1 ;
1"
1#
b1 =
1!
1.
1-
#208000
0-
#208500
0"
0!
b110 $
b110 8
b110 <
03
bx 0
bx 9
0%
b1 ?
b10 /
b111001 5
1-
#209000
0-
#209500
0.
1-
#210000
0-
#210500
1.
1-
#211000
0-
#211500
0.
1-
#212000
0-
#212500
1-
#213000
0-
#213500
14
1-
#214000
0-
#214500
b10 =
1"
b11 >
1.
04
b10 2
13
b11 0
b11 9
1-
#215000
0-
#215500
0#
0"
03
bx 0
bx 9
0.
b111 $
b111 8
b111 <
1%
b10 ?
1-
#216000
0-
#216500
1#
b0 =
1!
1.
14
1-
#217000
0-
#217500
1"
0!
b0 ;
b1 =
0.
04
13
b0 0
b0 9
0%
b0 ?
b111 /
b111010 5
1-
#218000
0-
#218500
0"
b11 $
b11 8
b11 <
03
bx 0
bx 9
1.
b1 ?
1-
#219000
0-
#219500
0.
14
1-
#220000
0-
#220500
b10 =
1"
b10 >
1.
b111 2
13
b10 0
b10 9
1-
#221000
0-
#221500
1!
b1 ;
b1 =
04
b1 0
b1 9
b10 $
b10 8
b10 <
1%
b10 ?
1-
#222000
0-
#222500
0"
0!
b110 $
b110 8
b110 <
03
bx 0
bx 9
0.
14
0%
b1 ?
b10 /
b111011 5
1-
#223000
0-
#223500
b10 =
1"
b11 >
1.
04
b101 2
13
b11 0
b11 9
1-
#224000
0-
#224500
0"
1!
b0 =
b111 $
b111 8
b111 <
03
bx 0
bx 9
1%
b10 ?
1-
#225000
0-
#225500
0!
0.
14
0%
b0 ?
b111 /
b111100 5
1-
#226000
0-
#226500
b1 =
1"
13
b1 0
b1 9
1-
#227000
0-
#227500
b1 >
b10 =
04
b0 2
b1 ?
1-
#228000
0-
#228500
0#
0"
b101 $
b101 8
b101 <
03
bx 0
bx 9
1%
b10 ?
1-
#229000
0-
#229500
1#
b0 =
1!
1.
14
1-
#230000
0-
#230500
1"
0!
b0 ;
b1 =
0.
13
b0 0
b0 9
0%
b0 ?
b101 /
b111101 5
1-
#231000
0-
#231500
b0 >
b10 =
1.
04
b1111 2
b1 $
b1 8
b1 <
b1 ?
1-
#232000
0-
#232500
0#
0"
b0 $
b0 8
b0 <
03
bx 0
bx 9
0.
1%
b10 ?
1-
#233000
0-
#233500
14
1-
#234000
0-
#234500
04
13
b11 0
b11 9
1-
#235000
0-
#235500
b11 ;
1"
1#
b1 =
1!
1.
1-
#236000
0-
#236500
0"
0!
b1100 $
b1100 8
b1100 <
03
bx 0
bx 9
0%
b1 ?
b0 /
b111110 5
1-
#237000
0-
#237500
1-
#238000
0-
#238500
14
1-
#239000
0-
#239500
b10 =
1"
b11 >
b1001 2
13
b11 0
b11 9
1-
#240000
0-
#240500
1!
b10 ;
b1 =
b1111 $
b1111 8
b1111 <
b10 0
b10 9
1%
b10 ?
1-
#241000
0-
#241500
0!
b1 >
b10 =
0.
b1010 2
b1 0
b1 9
b1011 $
b1011 8
b1011 <
0%
b1 ?
b1111 /
b111111 5
1-
#242000
0-
#242500
1!
b1 =
b1001 $
b1001 8
b1001 <
1.
04
b10 0
b10 9
1%
b10 ?
1-
#243000
0-
#243500
0"
0!
03
bx 0
bx 9
0.
14
0%
b1 ?
b1001 /
b1000000 5
1-
#244000
0-
#244500
b10 =
1"
b10 >
04
b1 2
13
b10 0
b10 9
1-
#245000
0-
#245500
0#
0"
03
bx 0
bx 9
14
b1010 $
b1010 8
b1010 <
1%
b10 ?
1-
#246000
0-
#246500
0.
04
13
b0 0
b0 9
1-
#247000
0-
#247500
1-
#248000
0-
#248500
1-
#249000
0-
#249500
1-
#250000
0-
#250500
1-
#251000
0-
#251500
b0 ;
1"
1#
b1 =
1!
1.
1-
#252000
0-
#252500
0"
0!
b10 $
b10 8
b10 <
03
bx 0
bx 9
14
0%
b1 ?
b1010 /
b1000001 5
1-
#253000
0-
#253500
b10 =
1"
b1 >
0.
04
b1011 2
13
b1 0
b1 9
1-
#254000
0-
#254500
0#
0"
b1 $
b1 8
b1 <
03
bx 0
bx 9
1%
b10 ?
1-
#255000
0-
#255500
14
1-
#256000
0-
#256500
13
b10 0
b10 9
1-
#257000
0-
#257500
b10 ;
1"
1#
b1 =
1!
1.
1-
#258000
0-
#258500
0!
b11 >
b10 =
b1001 $
b1001 8
b1001 <
0.
b110 2
b11 0
b11 9
0%
b1 ?
b1 /
b1000010 5
1-
#259000
0-
#259500
1!
b1 ;
b1 =
1.
04
b1 0
b1 9
b1011 $
b1011 8
b1011 <
1%
b10 ?
1-
#260000
0-
#260500
0"
0!
b111 $
b111 8
b111 <
03
bx 0
bx 9
0%
b1 ?
b1011 /
b1000011 5
1-
#261000
0-
#261500
0.
14
1-
#262000
0-
#262500
b10 =
1"
b10 >
13
b10 0
b10 9
1-
#263000
0-
#263500
0"
0#
04
b1 0
b1 9
b110 $
b110 8
b110 <
1%
b10 ?
1-
#264000
0-
#264500
1-
#265000
0-
#265500
1"
1#
b1 =
1!
1.
1-
#266000
0-
#266500
0"
0!
03
bx 0
bx 9
14
0%
b1 ?
b110 /
b1000100 5
1-
#267000
0-
#267500
b10 =
1"
0.
04
b0 2
13
b10 0
b10 9
1-
#268000
0-
#268500
0#
0"
03
bx 0
bx 9
1%
b10 ?
1-
#269000
0-
#269500
1#
b0 =
1!
1.
14
1-
#270000
0-
#270500
1"
0!
b0 ;
b1 =
0.
04
13
b0 0
b0 9
0%
b0 ?
b1000101 5
1-
#271000
0-
#271500
0"
03
bx 0
bx 9
14
b10 $
b10 8
b10 <
b1 ?
1-
#272000
0-
#272500
b10 =
1"
b0 >
1.
04
b110 2
13
b0 0
b0 9
1-
#273000
0-
#273500
0"
1!
b0 =
03
bx 0
bx 9
14
b0 $
b0 8
b0 <
1%
b10 ?
1-
#274000
0-
#274500
1"
0!
b1 ;
b1 =
0.
04
13
b1 0
b1 9
0%
b0 ?
b0 /
b1000110 5
1-
#275000
0-
#275500
0"
03
bx 0
bx 9
b100 $
b100 8
b100 <
b1 ?
1-
#276000
0-
#276500
1-
#277000
0-
#277500
1-
#278000
0-
#278500
1.
1-
#279000
0-
#279500
1-
#280000
0-
#280500
14
1-
#281000
0-
#281500
b10 =
1"
b10 >
04
b11 2
13
b10 0
b10 9
1-
#282000
0-
#282500
0"
1!
b0 =
b110 $
b110 8
b110 <
03
bx 0
bx 9
1%
b10 ?
1-
#283000
0-
#283500
0!
0.
14
0%
b0 ?
b110 /
b1000111 5
1-
#284000
0-
#284500
b1 =
1"
b0 ;
1.
13
b0 0
b0 9
1-
#285000
0-
#285500
b11 >
b10 =
b1011 2
b11 0
b11 9
b10 $
b10 8
b10 <
b1 ?
1-
#286000
0-
#286500
0"
0#
b11 $
b11 8
b11 <
0.
04
b10 0
b10 9
1%
b10 ?
1-
#287000
0-
#287500
b10 ;
1"
1#
b1 =
1!
1.
1-
#288000
0-
#288500
0"
0!
b1011 $
b1011 8
b1011 <
03
bx 0
bx 9
0.
14
0%
b1 ?
b11 /
b1001000 5
1-
#289000
0-
#289500
b10 =
1"
04
b1100 2
13
b11 0
b11 9
1-
#290000
0-
#290500
0"
1!
b0 =
03
bx 0
bx 9
1.
1%
b10 ?
1-
#291000
0-
#291500
0!
0%
b0 ?
b1011 /
b1001001 5
1-
#292000
0-
#292500
0.
14
1-
#293000
0-
#293500
b1 =
1"
b11 ;
13
b11 0
b11 9
1-
#294000
0-
#294500
b0 >
b10 =
b1111 $
b1111 8
b1111 <
1.
04
b101 2
b0 0
b0 9
b1 ?
1-
#295000
0-
#295500
0#
0"
03
bx 0
bx 9
0.
14
b1100 $
b1100 8
b1100 <
1%
b10 ?
1-
#296000
0-
#296500
04
13
b1 0
b1 9
1-
#297000
0-
#297500
1-
#298000
0-
#298500
1-
#299000
0-
#299500
b1 ;
1"
1#
b1 =
1!
1.
1-
#300000
0-
#300500
0"
0!
b100 $
b100 8
b100 <
03
bx 0
bx 9
14
0%
b1 ?
b1100 /
b1001010 5
1-
#301000
0-
#301500
b10 =
1"
b1 >
04
b11 2
13
b1 0
b1 9
1-
#302000
0-
#302500
0"
1!
b0 =
b101 $
b101 8
b101 <
03
bx 0
bx 9
1%
b10 ?
1-
#303000
0-
#303500
0!
0.
0%
b0 ?
b101 /
b1001011 5
1-
#304000
0-
#304500
1.
1-
#305000
0-
#305500
0.
14
1-
#306000
0-
#306500
b1 =
1"
b0 ;
1.
13
b0 0
b0 9
1-
#307000
0-
#307500
b11 >
b10 =
b1011 2
b11 0
b11 9
b1 $
b1 8
b1 <
b1 ?
1-
#308000
0-
#308500
1!
b10 ;
b1 =
b11 $
b11 8
b11 <
04
b10 0
b10 9
1%
b10 ?
1-
#309000
0-
#309500
0"
0!
03
bx 0
bx 9
b1011 $
b1011 8
b1011 <
0%
b1 ?
b11 /
b1001100 5
1-
#310000
0-
#310500
14
1-
#311000
0-
#311500
b10 =
1"
04
b11 2
13
b11 0
b11 9
1-
#312000
0-
#312500
0#
0"
03
bx 0
bx 9
0.
1%
b10 ?
1-
#313000
0-
#313500
1#
b0 =
1!
1.
1-
#314000
0-
