02_sequential_basics/dump.vcd
$date
	Thu Nov 20 01:52:44 2025
$end
$version
	Icarus Verilog
$end
$timescale
	1s
$end
$scope module testbench $end
$var wire 1 ! actual $end
$var parameter 128 " expected $end
$var parameter 32 # n $end
$var parameter 128 $ seq_a $end
$var parameter 128 % seq_b $end
$var parameter 128 & seq_last $end
$var parameter 128 ' seq_vld $end
$var reg 1 ( a $end
$var reg 1 ) b $end
$var reg 1 * clk $end
$var reg 1 + last $end
$var reg 1 , rst $end
$var reg 1 - vld $end
$scope module sav $end
$var wire 1 ( a $end
$var wire 1 ) b $end
$var wire 1 * clk $end
$var wire 1 + last $end
$var wire 1 , rst $end
$var wire 1 ! sum $end
$var wire 1 - vld $end
$var reg 1 . adder_res $end
$var reg 1 / carry $end
$var reg 2 0 next_state [1:0] $end
$var reg 2 1 state [1:0] $end
$upscope $end
$scope begin $ivl_for_loop0 $end
$var integer 32 2 i [31:0] $end
$upscope $end
$upscope $end
$enddefinitions $end
$comment Show the parameter values. $end
$dumpall
b1100111101001010001110111111001111010101000011111011110100111100111100111101011101110010100110010011101101000100111101000110100 '
b1111011001101111100000001110111110011000011011101101100111001111100000110010000011100111110100001111010001011010101101101111110 &
b100100111101111111011011010011001101010101000101101101000111100110111100001101111011011011010011000000111110101000010010001000 %
b10111010010111010010111001000101011011001101000011101110001100110001111000000010001110100101100000111110101011011011111001110001 $
b10000000 #
b10011110101010110010000010010110000110011000000110000011110011010000000100001111110001111110110011111111010101110011101011111001 "
$end
#0
$dumpvars
b0 2
bx 1
bx 0
x/
x.
x-
x,
x+
0*
x)
x(
x!
$end
#500
1*
#1000
0*
#1500
b0 0
b0 1
0!
0.
0/
1,
1*
#2000
0*
#2500
1*
#3000
0*
#3500
0+
0)
1(
0-
0,
1*
#4000
0*
#4500
1+
0(
b1 2
1*
#5000
0*
#5500
b11 0
1-
b10 2
1*
#6000
0*
#6500
b0 0
b11 1
1)
0-
b11 2
1*
#7000
0*
#7500
b11 0
b0 1
1!
1.
0)
1(
1-
b100 2
1*
#8000
0*
#8500
b0 0
0!
0.
b11 1
b101 2
1*
#9000
0*
#9500
b11 0
b0 1
1!
1.
1*
